<svg width="1152" height="700" viewBox="0 0 1152 700" fill="none" xmlns="http://www.w3.org/2000/svg">
<path d="M658.236 485.73C649.951 471.381 654.868 453.033 669.216 444.749L727.645 411.015C741.994 402.731 760.341 407.647 768.626 421.996L802.359 480.424C810.643 494.773 805.727 513.121 791.378 521.405L732.95 555.139C718.601 563.423 700.254 558.507 691.969 544.158L658.236 485.73Z" fill="#EC5863"/>
<rect x="56.4692" y="512.209" width="65.7521" height="65.7521" rx="16" transform="rotate(-30 56.4692 512.209)" fill="#EC5863"/>
<rect x="1006.93" y="233.463" width="65.7521" height="65.7521" rx="16" transform="rotate(-30 1006.93 233.463)" fill="#EC5863"/>
<path d="M397.588 295.399C413.592 299.688 423.09 316.138 418.801 332.142L409.236 367.839C404.948 383.843 388.498 393.34 372.494 389.052L336.797 379.487C320.793 375.199 311.295 358.749 315.584 342.745L325.149 307.047C329.437 291.043 345.887 281.546 361.891 285.834L397.588 295.399Z" fill="#EC5863"/>
</svg>
